<?xml version="1.0" encoding="UTF-8" standalone="no"?>
<!-- Created with Inkscape (http://www.inkscape.org/) -->

<svg
   xmlns:dc="http://purl.org/dc/elements/1.1/"
   xmlns:cc="http://creativecommons.org/ns#"
   xmlns:rdf="http://www.w3.org/1999/02/22-rdf-syntax-ns#"
   xmlns:svg="http://www.w3.org/2000/svg"
   xmlns="http://www.w3.org/2000/svg"
   xmlns:xlink="http://www.w3.org/1999/xlink"
   xmlns:sodipodi="http://sodipodi.sourceforge.net/DTD/sodipodi-0.dtd"
   xmlns:inkscape="http://www.inkscape.org/namespaces/inkscape"
   width="210mm"
   height="297mm"
   viewBox="0 0 210 297"
   version="1.1"
   id="svg8"
   inkscape:version="0.92.3 (2405546, 2018-03-11)"
   sodipodi:docname="cover 2.svg"
   inkscape:export-filename="/home/ak/i-love-ruby.gitlab.io/images/cover_2_small.png"
   inkscape:export-xdpi="44.984512"
   inkscape:export-ydpi="44.984512">
  <defs
     id="defs2">
    <linearGradient
       inkscape:collect="always"
       id="linearGradient3876">
      <stop
         offset="0"
         style="stop-color:#ffffff"
         id="stop3878" />
      <stop
         offset="1"
         style="stop-color:#ffffff;stop-opacity:.077586"
         id="stop3880" />
    </linearGradient>
    <linearGradient
       inkscape:collect="always"
       x1="326.55"
       y1="679.51"
       x2="322.86"
       gradientUnits="userSpaceOnUse"
       xlink:href="#linearGradient3876"
       y2="685.22"
       id="linearGradient3954" />
    <linearGradient
       inkscape:collect="always"
       id="linearGradient3858">
      <stop
         offset="0"
         style="stop-color:#ffffff"
         id="stop3860" />
      <stop
         offset="1"
         style="stop-color:#ffffff;stop-opacity:0"
         id="stop3862" />
    </linearGradient>
    <linearGradient
       inkscape:collect="always"
       x1="351.12"
       y1="686.2"
       x2="351.47"
       gradientUnits="userSpaceOnUse"
       xlink:href="#linearGradient3858"
       y2="691.93"
       id="linearGradient3952" />
    <linearGradient
       inkscape:collect="always"
       x1="123.52"
       y1="518.38"
       x2="87.291"
       gradientUnits="userSpaceOnUse"
       xlink:href="#linearGradient3858"
       y2="508.31"
       id="linearGradient3950" />
    <linearGradient
       inkscape:collect="always"
       xlink:href="#linearGradient3858"
       id="linearGradient1236"
       gradientUnits="userSpaceOnUse"
       x1="123.52"
       y1="518.38"
       x2="87.291"
       y2="508.31" />
    <linearGradient
       inkscape:collect="always"
       xlink:href="#linearGradient3858"
       id="linearGradient1238"
       gradientUnits="userSpaceOnUse"
       x1="351.12"
       y1="686.2"
       x2="351.47"
       y2="691.93" />
    <linearGradient
       inkscape:collect="always"
       xlink:href="#linearGradient3876"
       id="linearGradient1240"
       gradientUnits="userSpaceOnUse"
       x1="326.55"
       y1="679.51"
       x2="322.86"
       y2="685.22" />
  </defs>
  <sodipodi:namedview
     id="base"
     pagecolor="#070000"
     bordercolor="#666666"
     borderopacity="1.0"
     inkscape:pageopacity="1"
     inkscape:pageshadow="2"
     inkscape:zoom="0.24748737"
     inkscape:cx="-1384.4673"
     inkscape:cy="544.75597"
     inkscape:document-units="mm"
     inkscape:current-layer="layer1"
     showgrid="false"
     inkscape:window-width="1366"
     inkscape:window-height="704"
     inkscape:window-x="0"
     inkscape:window-y="27"
     inkscape:window-maximized="1" />
  <metadata
     id="metadata5">
    <rdf:RDF>
      <cc:Work
         rdf:about="">
        <dc:format>image/svg+xml</dc:format>
        <dc:type
           rdf:resource="http://purl.org/dc/dcmitype/StillImage" />
        <dc:title />
      </cc:Work>
    </rdf:RDF>
  </metadata>
  <g
     inkscape:label="Layer 1"
     inkscape:groupmode="layer"
     id="layer1">
    <text
       xml:space="preserve"
       style="font-style:normal;font-weight:normal;font-size:27.61038971px;line-height:1.25;font-family:sans-serif;letter-spacing:0px;word-spacing:0px;fill:#ffffff;fill-opacity:1;stroke:none;stroke-width:0.6902597"
       x="32.176815"
       y="57.060852"
       id="text1141"><tspan
         sodipodi:role="line"
         id="tspan1139"
         x="32.176815"
         y="57.060852"
         style="font-style:normal;font-variant:normal;font-weight:normal;font-stretch:normal;font-family:'Century Schoolbook L';-inkscape-font-specification:'Century Schoolbook L';fill:#ffffff;stroke-width:0.6902597">I Love Ruby</tspan></text>
    <g
       transform="matrix(0.72309273,0,0,0.72309273,-112.71686,-229.99308)"
       inkscape:label="Layer 1"
       id="layer1-9">
      <g
         transform="matrix(1,0.001032,-0.001032,1,-54.26,-122.28)"
         id="g3884">
        <ellipse
           transform="matrix(0.38456,0.60266,-1.3835,0.1321,1022,543.21)"
           style="opacity:0.89223998;fill:#8f0000;stroke:#cd0000"
           id="path3202"
           cx="103.03556"
           cy="512.68817"
           rx="21.213203"
           ry="21.465742" />
        <path
           d="m 337.3,684.34 14.41,30.74 14.74,-30.18 c -9.66,1.76 -19.49,1.26 -29.15,-0.56 z"
           style="opacity:0.89223998;fill:#8f0000;fill-rule:evenodd;stroke:#cd0000;stroke-width:1px"
           sodipodi:nodetypes="cccc"
           id="path3204"
           inkscape:connector-curvature="0" />
        <path
           d="m 351.21,717.1 3.03,24.24 18.18,-27.53 c -5.75,1.98 -13.49,2.62 -21.21,3.29 z"
           style="opacity:0.89223998;fill:#8f0000;fill-rule:evenodd;stroke:#cd0000;stroke-width:1px"
           sodipodi:nodetypes="cccc"
           id="path3206"
           inkscape:connector-curvature="0" />
        <path
           d="m 351.57,716.99 1.94,25.6 -23.76,-28.08 c 5.82,1.76 14.09,2.11 21.82,2.48 z"
           style="fill:#d52020;fill-rule:evenodd;stroke:#cd0000;stroke-width:1px"
           sodipodi:nodetypes="cccc"
           id="path3208"
           inkscape:connector-curvature="0" />
        <path
           d="m 352.22,716.09 14.71,-30.98 22.16,22.14 c -7.29,2.99 -24.3,11.28 -36.87,8.84 z"
           style="opacity:0.89223998;fill:#990000;fill-rule:evenodd;stroke:#cd0000;stroke-width:1px"
           sodipodi:nodetypes="cccc"
           id="path3210"
           inkscape:connector-curvature="0" />
        <path
           d="m 367.02,684.7 c 10.72,-1.96 14.92,-5.52 16.61,-10.8 l 5.62,32.67 z"
           style="opacity:0.89223998;fill:#be0e09;fill-rule:evenodd;stroke:#cd0000;stroke-width:1px"
           sodipodi:nodetypes="cccc"
           id="path3212"
           inkscape:connector-curvature="0" />
        <path
           d="m 384.52,677.2 15.27,5.36 c 1.12,2.49 3.33,7.57 1.52,12.23 -2.09,5.37 -6.23,9.33 -11.34,12.5 l -5.9,-30.36"
           style="opacity:0.89223998;fill:#8f0000;fill-rule:evenodd;stroke:#cd0000;stroke-width:1px"
           sodipodi:nodetypes="ccscc"
           id="path3214"
           inkscape:connector-curvature="0" />
        <path
           d="m 381.4,668.45 c 1.49,1.98 2.07,3.93 2.85,8.03 l 15.81,5.63 z"
           style="opacity:0.80171982;fill:#8f0000;fill-rule:evenodd;stroke:#cd0000;stroke-width:1px"
           sodipodi:nodetypes="cccc"
           id="path3216"
           inkscape:connector-curvature="0" />
        <path
           d="m 352.06,716.31 -14.53,-31.51 -28.41,20 c 4.85,4.45 30.37,13.96 42.94,11.51 z"
           style="opacity:0.89223998;fill:#a60000;fill-rule:evenodd;stroke:#cd0000;stroke-width:1px"
           sodipodi:nodetypes="cccc"
           id="path3218"
           inkscape:connector-curvature="0" />
        <path
           d="m 336.96,684.47 c -10.21,-3.78 -14.98,-7.48 -15.73,-12.97 l -11.89,32.52 z"
           style="opacity:0.89223998;fill:#8f0000;fill-rule:evenodd;stroke:#cd0000;stroke-width:1px"
           sodipodi:nodetypes="cccc"
           id="path3220"
           inkscape:connector-curvature="0" />
        <path
           d="m 322.88,668.14 -18.22,15.62 c -4.96,10.53 3.36,19.12 3.93,20.71 z"
           style="opacity:0.89223998;fill:#ad0f0f;fill-rule:evenodd;stroke:#cd0000;stroke-width:1px"
           sodipodi:nodetypes="cccc"
           id="path3222"
           inkscape:connector-curvature="0" />
        <path
           d="m 308.38,704.78 45.25,38.4 -23.93,-29.28 c -8.24,-1.91 -14.48,-5.82 -21.32,-9.12 z"
           style="opacity:0.89223998;fill:#8f0000;fill-rule:evenodd;stroke:#cd0000;stroke-width:1px"
           sodipodi:nodetypes="cccc"
           id="path3224"
           inkscape:connector-curvature="0" />
        <path
           d="m 389.78,706.99 -36.51,36.73 18.93,-29.47 c 6.29,-2.47 11.95,-4.95 17.58,-7.26 z"
           style="opacity:0.76723998;fill:#990000;fill-rule:evenodd;stroke:#cd0000;stroke-width:1px"
           sodipodi:nodetypes="cccc"
           id="path3226"
           inkscape:connector-curvature="0" />
        <ellipse
           transform="matrix(0.38456,0.60266,-1.3835,0.1321,1022.8,542.72)"
           style="opacity:0.40517046;fill:url(#linearGradient1236)"
           id="path3836"
           cx="103.03556"
           cy="512.68817"
           rx="21.213203"
           ry="21.465742" />
        <path
           d="m 337.97,684.95 14.41,30.74 14.74,-30.17 c -9.66,1.75 -19.49,1.25 -29.15,-0.57 z"
           style="opacity:0.89223998;fill:url(#linearGradient1238);fill-rule:evenodd"
           sodipodi:nodetypes="cccc"
           id="path3856"
           inkscape:connector-curvature="0" />
        <path
           d="m 336.67,684.79 c -10.21,-3.78 -14.99,-7.48 -15.74,-12.98 l -11.88,32.53 z"
           style="opacity:0.89223998;fill:url(#linearGradient1240);fill-rule:evenodd"
           sodipodi:nodetypes="cccc"
           id="path3866"
           inkscape:connector-curvature="0" />
      </g>
      <g
         transform="matrix(1,-0.001032,-0.001032,-1,-53.321,1375.4)"
         style="opacity:0.38362002"
         id="g4055">
        <ellipse
           transform="matrix(0.38456,0.60266,-1.3835,0.1321,1022,543.21)"
           style="opacity:0.89223998;fill:#8f0000;stroke:#cd0000"
           id="path4057"
           cx="103.03556"
           cy="512.68817"
           rx="21.213203"
           ry="21.465742" />
        <path
           d="m 337.3,684.34 14.41,30.74 14.74,-30.18 c -9.66,1.76 -19.49,1.26 -29.15,-0.56 z"
           style="opacity:0.89223998;fill:#8f0000;fill-rule:evenodd;stroke:#cd0000;stroke-width:1px"
           sodipodi:nodetypes="cccc"
           id="path4059"
           inkscape:connector-curvature="0" />
        <path
           d="m 351.21,717.1 3.03,24.24 18.18,-27.53 c -5.75,1.98 -13.49,2.62 -21.21,3.29 z"
           style="opacity:0.89223998;fill:#8f0000;fill-rule:evenodd;stroke:#cd0000;stroke-width:1px"
           sodipodi:nodetypes="cccc"
           id="path4061"
           inkscape:connector-curvature="0" />
        <path
           d="m 351.57,716.99 1.94,25.6 -23.76,-28.08 c 5.82,1.76 14.09,2.11 21.82,2.48 z"
           style="opacity:1;fill:#d52020;fill-rule:evenodd;stroke:#cd0000;stroke-width:1px"
           sodipodi:nodetypes="cccc"
           id="path4063"
           inkscape:connector-curvature="0" />
        <path
           d="m 352.22,716.09 14.71,-30.98 22.16,22.14 c -7.29,2.99 -24.3,11.28 -36.87,8.84 z"
           style="opacity:0.89223998;fill:#990000;fill-rule:evenodd;stroke:#cd0000;stroke-width:1px"
           sodipodi:nodetypes="cccc"
           id="path4065"
           inkscape:connector-curvature="0" />
        <path
           d="m 367.02,684.7 c 10.72,-1.96 14.92,-5.52 16.61,-10.8 l 5.62,32.67 z"
           style="opacity:0.89223998;fill:#be0e09;fill-rule:evenodd;stroke:#cd0000;stroke-width:1px"
           sodipodi:nodetypes="cccc"
           id="path4067"
           inkscape:connector-curvature="0" />
        <path
           d="m 384.52,677.2 15.27,5.36 c 1.12,2.49 3.33,7.57 1.52,12.23 -2.09,5.37 -6.23,9.33 -11.34,12.5 l -5.9,-30.36"
           style="opacity:0.89223998;fill:#8f0000;fill-rule:evenodd;stroke:#cd0000;stroke-width:1px"
           sodipodi:nodetypes="ccscc"
           id="path4069"
           inkscape:connector-curvature="0" />
        <path
           d="m 381.4,668.45 c 1.49,1.98 2.07,3.93 2.85,8.03 l 15.81,5.63 z"
           style="opacity:0.80171982;fill:#8f0000;fill-rule:evenodd;stroke:#cd0000;stroke-width:1px"
           sodipodi:nodetypes="cccc"
           id="path4071"
           inkscape:connector-curvature="0" />
        <path
           d="m 352.06,716.31 -14.53,-31.51 -28.41,20 c 4.85,4.45 30.37,13.96 42.94,11.51 z"
           style="opacity:0.89223998;fill:#a60000;fill-rule:evenodd;stroke:#cd0000;stroke-width:1px"
           sodipodi:nodetypes="cccc"
           id="path4073"
           inkscape:connector-curvature="0" />
        <path
           d="m 336.96,684.47 c -10.21,-3.78 -14.98,-7.48 -15.73,-12.97 l -11.89,32.52 z"
           style="opacity:0.89223998;fill:#8f0000;fill-rule:evenodd;stroke:#cd0000;stroke-width:1px"
           sodipodi:nodetypes="cccc"
           id="path4075"
           inkscape:connector-curvature="0" />
        <path
           d="m 322.88,668.14 -18.22,15.62 c -4.96,10.53 3.36,19.12 3.93,20.71 z"
           style="opacity:0.89223998;fill:#ad0f0f;fill-rule:evenodd;stroke:#cd0000;stroke-width:1px"
           sodipodi:nodetypes="cccc"
           id="path4077"
           inkscape:connector-curvature="0" />
        <path
           d="m 308.38,704.78 45.25,38.4 -23.93,-29.28 c -8.24,-1.91 -14.48,-5.82 -21.32,-9.12 z"
           style="opacity:0.89223998;fill:#8f0000;fill-rule:evenodd;stroke:#cd0000;stroke-width:1px"
           sodipodi:nodetypes="cccc"
           id="path4079"
           inkscape:connector-curvature="0" />
        <path
           d="m 389.78,706.99 -36.51,36.73 18.93,-29.47 c 6.29,-2.47 11.95,-4.95 17.58,-7.26 z"
           style="opacity:0.76723998;fill:#990000;fill-rule:evenodd;stroke:#cd0000;stroke-width:1px"
           sodipodi:nodetypes="cccc"
           id="path4081"
           inkscape:connector-curvature="0" />
        <ellipse
           transform="matrix(0.38456,0.60266,-1.3835,0.1321,1022.8,542.72)"
           style="opacity:0.40517046;fill:url(#linearGradient3950)"
           id="path4083"
           cx="103.03556"
           cy="512.68817"
           rx="21.213203"
           ry="21.465742" />
        <path
           d="m 337.97,684.95 14.41,30.74 14.74,-30.17 c -9.66,1.75 -19.49,1.25 -29.15,-0.57 z"
           style="opacity:0.89223998;fill:url(#linearGradient3952);fill-rule:evenodd"
           sodipodi:nodetypes="cccc"
           id="path4085"
           inkscape:connector-curvature="0" />
        <path
           d="m 336.67,684.79 c -10.21,-3.78 -14.99,-7.48 -15.74,-12.98 l -11.88,32.53 z"
           style="opacity:0.89223998;fill:url(#linearGradient3954);fill-rule:evenodd"
           sodipodi:nodetypes="cccc"
           id="path4087"
           inkscape:connector-curvature="0" />
      </g>
    </g>
    <text
       xml:space="preserve"
       style="font-style:normal;font-weight:normal;font-size:11.57746696px;line-height:1.25;font-family:sans-serif;letter-spacing:0px;word-spacing:0px;fill:#ffffff;fill-opacity:1;stroke:none;stroke-width:0.28943664"
       x="55.880119"
       y="136.7881"
       id="text1141-3"><tspan
         sodipodi:role="line"
         id="tspan1139-6"
         x="55.880119"
         y="136.7881"
         style="font-style:normal;font-variant:normal;font-weight:normal;font-stretch:normal;font-family:'Century Schoolbook L';-inkscape-font-specification:'Century Schoolbook L';fill:#ffffff;stroke-width:0.28943664">- Karthikeyan.A.K</tspan></text>
    <text
       xml:space="preserve"
       style="font-style:normal;font-weight:normal;font-size:10.58333302px;line-height:1.25;font-family:sans-serif;text-align:center;letter-spacing:0px;word-spacing:0px;text-anchor:middle;fill:#ffffff;fill-opacity:1;stroke:none;stroke-width:0.26458332"
       x="107.76479"
       y="88.432755"
       id="text1262"><tspan
         sodipodi:role="line"
         id="tspan1260"
         x="107.76479"
         y="88.432755"
         style="font-style:normal;font-variant:normal;font-weight:normal;font-stretch:normal;font-family:'Century Schoolbook L';-inkscape-font-specification:'Century Schoolbook L';text-align:center;text-anchor:middle;fill:#ffffff;stroke-width:0.26458332">Get started with the</tspan><tspan
         sodipodi:role="line"
         x="107.76479"
         y="101.72675"
         style="font-style:normal;font-variant:normal;font-weight:normal;font-stretch:normal;font-family:'Century Schoolbook L';-inkscape-font-specification:'Century Schoolbook L';text-align:center;text-anchor:middle;fill:#ffffff;stroke-width:0.26458332"
         id="tspan1264">greatest programming language</tspan><tspan
         sodipodi:role="line"
         x="107.76479"
         y="115.02075"
         style="font-style:normal;font-variant:normal;font-weight:normal;font-stretch:normal;font-family:'Century Schoolbook L';-inkscape-font-specification:'Century Schoolbook L';text-align:center;text-anchor:middle;fill:#ffffff;stroke-width:0.26458332"
         id="tspan1266">made for humans.</tspan></text>
  </g>
</svg>
